0.010000 0.000000 0.039704 0.037586
0.020000 0.000000 0.132804 0.131217
0.030000 0.000000 0.225225 0.231585
0.040000 0.000000 0.254246 0.280255
0.050000 0.000000 0.377978 0.410270
0.060000 0.000000 0.549735 0.511111
0.070000 0.000000 0.542857 0.580423
0.080000 0.000000 0.855256 0.773904
0.090000 0.000000 0.990481 0.973030
0.100000 0.000000 1.150026 1.113048
0.110000 0.000000 1.418691 1.326294
0.120000 0.000000 1.656267 1.603384
0.130000 0.000000 1.897571 1.783527
0.140000 0.000000 2.253305 2.125859
0.150000 0.000000 2.544157 2.484400
0.160000 0.000000 2.814913 2.701216
0.170000 0.000000 3.296669 3.038604
0.180000 0.000000 3.627710 3.273929
0.190000 0.000000 3.633721 3.659091
0.200000 0.000000 4.293651 3.923280
0.210000 0.000000 4.862579 4.390063
0.220000 0.000000 5.229266 4.553618
0.230000 0.000000 5.598413 5.003175
0.240000 0.000000 6.357634 5.140518
0.250000 0.000000 7.031746 5.404762
0.260000 0.000000 7.195985 5.399894
0.270000 0.000000 7.746434 6.105652
0.280000 0.000000 8.208245 6.540698
0.290000 0.000000 8.499472 6.682875
0.300000 0.000000 8.262547 6.824089
0.310000 0.000000 9.031167 7.244586
0.320000 0.000000 9.795563 6.997359
0.330000 0.000000 9.623678 7.841966
0.340000 0.000000 11.154699 7.600845
0.350000 0.000000 11.221988 7.862579
0.360000 0.000000 12.072900 8.229794
0.370000 0.000000 12.493136 8.189546
0.380000 0.000000 12.660856 8.212361
0.390000 0.000000 13.298310 8.645723
0.400000 0.000000 13.813953 8.816068
0.410000 0.000000 13.564184 8.590597
0.420000 0.000000 13.674947 8.669133
0.430000 0.000000 13.827440 8.886016
0.440000 0.000000 13.503966 8.635642
0.450000 0.000000 13.969344 8.739958
0.460000 0.000000 13.524538 8.934565
0.470000 0.000000 14.325053 8.965117
0.480000 0.000000 14.382259 9.316790
0.490000 0.000000 14.837467 9.426385
0.500000 0.000000 14.099841 9.446910
0.510000 0.000000 14.412757 9.850817
0.520000 0.000000 15.064977 9.627047
0.530000 0.000000 15.021659 10.135763
0.540000 0.000000 14.380475 9.880211
0.550000 0.000000 15.054382 10.148891
0.560000 0.000000 14.410988 9.521395
0.570000 0.000000 14.839323 10.155920
0.580000 0.000000 14.543535 9.241161
0.590000 0.000000 15.947730 10.031151
0.600000 0.000000 14.822070 9.840021
