0.010000 0.168394 0.165803
0.020000 0.388175 0.349614
0.030000 0.639175 0.690722
0.040000 0.776042 0.661458
0.050000 1.031414 0.965969
0.060000 1.158442 1.259740
0.070000 1.306494 1.257143
0.080000 1.574742 1.407217
0.090000 1.693299 1.613402
0.100000 1.780928 1.507732
0.110000 1.896641 1.723514
0.120000 2.093264 1.676166
0.130000 2.378238 1.911917
0.140000 2.439898 1.772379
0.150000 2.569588 1.917526
0.160000 2.760101 1.878788
0.170000 2.829082 1.933674
0.180000 3.217391 1.769821
0.190000 3.289003 2.005115
0.200000 3.751938 2.291990
0.210000 3.843188 1.922879
0.220000 3.456410 1.884615
0.230000 3.767857 1.989796
0.240000 4.222507 1.941176
0.250000 4.168367 1.956633
0.260000 4.030691 1.815857
0.270000 4.423077 2.171795
0.280000 5.051151 1.874680
0.290000 4.945876 1.974227
0.300000 4.897698 2.081841
0.310000 5.191327 2.099490
0.320000 4.772378 1.759591
0.330000 5.410256 1.951282
0.340000 5.295918 1.727041
0.350000 5.525641 1.892308
0.360000 8.473008 1.922879
0.370000 8.655527 1.832905
0.380000 6.690537 1.808184
0.390000 6.637755 1.811224
0.400000 11.935898 1.528205
0.410000 11.135550 2.079284
0.420000 11.081841 1.797954
0.430000 14.048347 1.750636
0.440000 12.780612 1.928571
0.450000 13.832061 1.661578
0.460000 15.236641 1.824427
0.470000 16.336735 1.808674
0.480000 16.053572 1.885204
0.490000 17.548969 1.894330
0.500000 16.667519 1.751918
0.510000 17.776922 1.705128
0.520000 19.137754 1.834184
0.530000 19.045918 1.941326
0.540000 19.701031 1.695876
0.550000 20.753845 1.994872
0.560000 21.446154 1.766667
0.570000 22.086077 1.977215
0.580000 22.480917 1.798982
0.590000 20.218273 1.591371
0.600000 21.367348 1.788265
