^D:\POLITECHNIKA\PRACA MAGISTERSKA\SYMULACJA\SYMULACJA\DEBUG\MAIN.OBJ
/OUT:"D:\POLITECHNIKA\PRACA MAGISTERSKA\SYMULACJA\DEBUG\SYMULACJA.EXE" /INCREMENTAL /NOLOGO KERNEL32.LIB USER32.LIB GDI32.LIB WINSPOOL.LIB COMDLG32.LIB ADVAPI32.LIB SHELL32.LIB OLE32.LIB OLEAUT32.LIB UUID.LIB ODBC32.LIB ODBCCP32.LIB /MANIFEST /MANIFESTUAC:"level='asInvoker' uiAccess='false'" /manifest:embed /DEBUG:FASTLINK /PDB:"D:\POLITECHNIKA\PRACA MAGISTERSKA\SYMULACJA\DEBUG\SYMULACJA.PDB" /TLBID:1 /DYNAMICBASE /NXCOMPAT /IMPLIB:"D:\POLITECHNIKA\PRACA MAGISTERSKA\SYMULACJA\DEBUG\SYMULACJA.LIB" /MACHINE:X86 DEBUG\MAIN.OBJ
^D:\POLITECHNIKA\PRACA MAGISTERSKA\SYMULACJA\SYMULACJA\DEBUG\AGENTSGRID.OBJ|D:\POLITECHNIKA\PRACA MAGISTERSKA\SYMULACJA\SYMULACJA\DEBUG\GRAPHICAL_FUNCTIONS.OBJ|D:\POLITECHNIKA\PRACA MAGISTERSKA\SYMULACJA\SYMULACJA\DEBUG\GRID.OBJ|D:\POLITECHNIKA\PRACA MAGISTERSKA\SYMULACJA\SYMULACJA\DEBUG\MAIN.OBJ
/OUT:"D:\POLITECHNIKA\PRACA MAGISTERSKA\SYMULACJA\DEBUG\SYMULACJA.EXE" /INCREMENTAL /NOLOGO /LIBPATH:"D:\POLITECHNIKA\PRACA MAGISTERSKA\SYMULACJA\SYMULACJA\DEPENDANCIES\LIB" OPENGL32.LIB GLU32.LIB GLEW32.LIB GLFW3.LIB KERNEL32.LIB USER32.LIB GDI32.LIB WINSPOOL.LIB COMDLG32.LIB ADVAPI32.LIB SHELL32.LIB OLE32.LIB OLEAUT32.LIB UUID.LIB ODBC32.LIB ODBCCP32.LIB /MANIFEST /MANIFESTUAC:"level='asInvoker' uiAccess='false'" /manifest:embed /DEBUG:FASTLINK /PDB:"D:\POLITECHNIKA\PRACA MAGISTERSKA\SYMULACJA\DEBUG\SYMULACJA.PDB" /TLBID:1 /DYNAMICBASE /NXCOMPAT /IMPLIB:"D:\POLITECHNIKA\PRACA MAGISTERSKA\SYMULACJA\DEBUG\SYMULACJA.LIB" /MACHINE:X86 DEBUG\AGENTSGRID.OBJDEBUG\GRAPHICAL_FUNCTIONS.OBJDEBUG\GRID.OBJDEBUG\MAIN.OBJ
